{
    "rules": {
        "align": [
            true,
            "statements"
        ],
        "class-name": true,
        "comment-format": [
            true,
            "check-space"
        ],
        "curly": false,
        "eofline": true,
        "forin": true,
        "indent": [
            true,
            "spaces"
        ],
        "interface-name": true,
        "jsdoc-format": true,
        "member-access": true,
        "member-ordering": [
            true, {
                "public-before-private": true,
                "static-before-instance": true,
                "variables-before-functions": true
            }
        ],
        "no-construct": true,
        "no-duplicate-variable": true,
        "no-empty": true,
        "no-eval": true,
        "no-internal-module": true,
        "no-trailing-whitespace": true,
        "no-var-keyword": false,
        "one-line": [
            true,
            // "check-open-brace",
            "check-whitespace"
        ],
        "quotemark": [
            true,
            "single"
        ],
        "semicolon": true,
        "triple-equals": [
            true,
            "allow-null-check"
        ],
        "typedef-whitespace": [
            true, {
                "call-signature": "nospace",
                "index-signature": "nospace",
                "parameter": "nospace",
                "property-declaration": "nospace",
                "variable-declaration": "nospace"
            }
        ],
        "variable-name": [
            true,
            "ban-keywords"
        ],
        "whitespace": [
            true,
            "check-branch",
            "check-decl",
            "check-operator",
            "check-separator",
            "check-type"
        ]
    }
}
